…
## What is mean total number of steps taken per day?

##### 1. Calculate the total number of steps taken per day

```r
steps_day <- data %>%
  filter(!is.na(data)) %>%
  group_by(date) %>%
  summarise(across(steps, sum, na.rm = TRUE))
steps_day
```

```
## # A tibble: 53 × 2
##    date       steps
##    <date>     <dbl>
##  1 2012-10-02   126
##  2 2012-10-03 11352
##  3 2012-10-04 12116
##  4 2012-10-05 13294
##  5 2012-10-06 15420
##  6 2012-10-07 11015
##  7 2012-10-09 12811
##  8 2012-10-10  9900
##  9 2012-10-11 10304
## 10 2012-10-12 17382
## # … with 43 more rows
```
…
```
## `summarise()` has grouped output by 'interval'. You can override using the `.groups` argument.
```

```r
steps_intv_weektype
```

```
## # A tibble: 576 × 3
## # Groups:   interval [288]
##    interval type_of_day   steps
##       <dbl> <chr>         <dbl>
##  1        0 weekday     2.25   
##  2        0 weekend     0.215  
##  3        5 weekday     0.445  
##  4        5 weekend     0.0425 
##  5       10 weekday     0.173  
##  6       10 weekend     0.0165 
##  7       15 weekday     0.198  
##  8       15 weekend     0.0189 
##  9       20 weekday     0.0990 
## 10       20 weekend     0.00943
## # … with 566 more rows
```
…
